<?xml version="1.0" encoding="UTF-8" standalone="no"?>
<!-- Created with Inkscape (http://www.inkscape.org/) -->

<svg
   xmlns:dc="http://purl.org/dc/elements/1.1/"
   xmlns:cc="http://creativecommons.org/ns#"
   xmlns:rdf="http://www.w3.org/1999/02/22-rdf-syntax-ns#"
   xmlns:svg="http://www.w3.org/2000/svg"
   xmlns="http://www.w3.org/2000/svg"
   xmlns:xlink="http://www.w3.org/1999/xlink"
   xmlns:sodipodi="http://sodipodi.sourceforge.net/DTD/sodipodi-0.dtd"
   xmlns:inkscape="http://www.inkscape.org/namespaces/inkscape"
   width="1144.5875mm"
   height="260.87918mm"
   viewBox="0 0 1144.5876 260.87918"
   version="1.1"
   id="svg8"
   inkscape:version="0.92.3 (2405546, 2018-03-11)"
   sodipodi:docname="template-two-amps-ccd-with-overscan.svg">
  <defs
     id="defs2">
    <clipPath
       clipPathUnits="userSpaceOnUse"
       id="clipPath3747">
      <rect
         style="stroke-width:0.29121774"
         y="271.05447"
         x="53.990494"
         height="236.48868"
         width="546.2475"
         id="rect3749"
         transform="rotate(90)" />
    </clipPath>
    <clipPath
       clipPathUnits="userSpaceOnUse"
       id="clipPath3751">
      <rect
         id="rect3753"
         width="546.2475"
         height="236.48868"
         x="-544.34955"
         y="271.05447"
         style="stroke-width:0.29121774"
         transform="matrix(0,-1,-1,0,0,0)" />
    </clipPath>
  </defs>
  <sodipodi:namedview
     id="base"
     pagecolor="#ffffff"
     bordercolor="#001cda"
     borderopacity="1"
     inkscape:pageopacity="0.0"
     inkscape:pageshadow="2"
     inkscape:zoom="0.1827428"
     inkscape:cx="2705.5741"
     inkscape:cy="-336.46283"
     inkscape:document-units="mm"
     inkscape:current-layer="layer1"
     showgrid="true"
     showguides="false"
     inkscape:guide-bbox="true"
     inkscape:window-width="1205"
     inkscape:window-height="930"
     inkscape:window-x="0"
     inkscape:window-y="31"
     inkscape:window-maximized="0"
     inkscape:snap-tangential="false"
     inkscape:showpageshadow="false"
     inkscape:snap-global="true"
     fit-margin-top="0"
     fit-margin-left="0"
     fit-margin-right="0"
     fit-margin-bottom="0">
    <sodipodi:guide
       position="554.34956,-114.76351"
       orientation="1,0"
       id="guide815"
       inkscape:locked="false"
       inkscape:label=""
       inkscape:color="rgb(0,0,255)" />
    <sodipodi:guide
       position="744.34957,-114.76351"
       orientation="1,0"
       id="guide817"
       inkscape:locked="false"
       inkscape:label=""
       inkscape:color="rgb(0,0,255)" />
    <inkscape:grid
       type="xygrid"
       id="grid857"
       units="mm"
       spacingx="1"
       spacingy="1"
       dotted="false"
       enabled="false"
       originx="544.34964"
       originy="-114.76352" />
  </sodipodi:namedview>
  <metadata
     id="metadata5">
    <rdf:RDF>
      <cc:Work
         rdf:about="">
        <dc:format>image/svg+xml</dc:format>
        <dc:type
           rdf:resource="http://purl.org/dc/dcmitype/StillImage" />
        <dc:title></dc:title>
        <dc:creator>
          <cc:Agent>
            <dc:title>Matías Senger</dc:title>
          </cc:Agent>
        </dc:creator>
        <cc:license
           rdf:resource="http://creativecommons.org/publicdomain/zero/1.0/" />
      </cc:Work>
      <cc:License
         rdf:about="http://creativecommons.org/publicdomain/zero/1.0/">
        <cc:permits
           rdf:resource="http://creativecommons.org/ns#Reproduction" />
        <cc:permits
           rdf:resource="http://creativecommons.org/ns#Distribution" />
        <cc:permits
           rdf:resource="http://creativecommons.org/ns#DerivativeWorks" />
      </cc:License>
    </rdf:RDF>
  </metadata>
  <g
     inkscape:label="Capa 1"
     inkscape:groupmode="layer"
     id="layer1"
     transform="translate(544.34953,78.642715)">
    <image
       sodipodi:absref="/home/darmat/soft/skipper-ccd-tools/inkscape-tools/cuadrant_0.jpeg"
       xlink:href="cuadrant_0.jpeg"
       transform="rotate(-90)"
       width="260.87918"
       height="572.29376"
       preserveAspectRatio="none"
       id="image22"
       x="-182.23647"
       y="27.944229" />
    <image
       sodipodi:absref="/home/darmat/soft/skipper-ccd-tools/inkscape-tools/cuadrant_2.jpeg"
       xlink:href="cuadrant_2.jpeg"
       transform="matrix(0,-1,-1,0,0,0)"
       width="260.87918"
       height="572.29376"
       preserveAspectRatio="none"
       id="image33"
       x="-182.23647"
       y="-27.944229" />
  </g>
</svg>
